<svg width="59" height="50" viewBox="0 0 59 50" fill="none" xmlns="http://www.w3.org/2000/svg">
<g clip-path="url(#clip0)">
<path d="M7.27777 38.3682V36.3654C7.27777 34.952 8.13516 34.1382 9.67244 34.1382C11.1394 34.1382 11.9331 34.8013 11.9331 36.0338V36.1243C11.9331 36.2482 11.8628 36.3286 11.7355 36.3286H11.0557C10.9317 36.3286 10.8581 36.2582 10.8581 36.1309V36.0338C10.8581 35.3539 10.5097 35.0224 9.66909 35.0224C8.82845 35.0224 8.3897 35.4511 8.3897 36.2549V38.4285C8.3897 39.2591 8.84519 39.7079 9.70258 39.7079C10.5265 39.7079 10.9016 39.3864 10.9016 38.6797V38.117H9.91358C9.68249 38.117 9.54852 37.9831 9.54852 37.7687V37.5644C9.54852 37.34 9.68249 37.206 9.91358 37.206H11.5748C11.826 37.206 11.9499 37.33 11.9499 37.5811V38.6797C11.9499 39.8954 11.1293 40.5921 9.68919 40.5921C8.15526 40.5921 7.27777 39.7782 7.27777 38.3682Z" fill="white"/>
<path d="M15.1417 40.2069C15.1417 40.1433 15.1584 40.0629 15.1952 39.9557L16.8397 34.7276C16.9636 34.3358 17.1177 34.2085 17.466 34.2085H18.0755C18.4239 34.2085 18.5746 34.3324 18.7018 34.7276L20.3463 39.9557C20.3831 40.0629 20.3999 40.1433 20.3999 40.2069C20.3999 40.3777 20.2927 40.4916 20.0683 40.4916H19.6832C19.4521 40.4916 19.3616 40.4112 19.2813 40.1533L18.8425 38.7065H16.6622L16.2234 40.1533C16.1431 40.4112 16.0526 40.4916 15.8215 40.4916H15.4732C15.2522 40.4949 15.1417 40.3777 15.1417 40.2069ZM18.5679 37.7787L17.754 35.0692L16.9402 37.7787H18.5679Z" fill="white"/>
<path d="M24.0605 40.0027V34.5502C24.0605 34.3626 24.1845 34.2354 24.372 34.2354H24.8443C25.0318 34.2354 25.1557 34.3593 25.1557 34.5502V39.5807H27.604C27.8016 39.5807 27.9088 39.6878 27.9088 39.8854V40.1902C27.9088 40.3878 27.8016 40.495 27.604 40.495H24.5462C24.2481 40.495 24.0605 40.3074 24.0605 40.0027Z" fill="white"/>
<path d="M30.4709 40.2069C30.4709 40.1433 30.4876 40.0629 30.5245 39.9557L32.1689 34.7276C32.2928 34.3358 32.4469 34.2085 32.7952 34.2085H33.4048C33.7531 34.2085 33.9038 34.3324 34.0311 34.7276L35.6755 39.9557C35.7124 40.0629 35.7291 40.1433 35.7291 40.2069C35.7291 40.3777 35.6219 40.4916 35.3975 40.4916H35.0124C34.7813 40.4916 34.6909 40.4112 34.6105 40.1533L34.1717 38.7065H31.9914L31.5527 40.1533C31.4723 40.4112 31.3819 40.4916 31.1508 40.4916H30.8025C30.5814 40.4949 30.4709 40.3777 30.4709 40.2069ZM33.8938 37.7787L33.0799 35.0692L32.266 37.7787H33.8938Z" fill="white"/>
<path d="M38.8975 40.2605C38.8975 40.1534 38.9343 40.083 39.0314 39.9223L40.6658 37.3401L39.0582 34.8114C38.9611 34.6507 38.9243 34.5803 38.9243 34.4732C38.9243 34.3224 39.0214 34.2421 39.2022 34.2421H39.6745C39.8888 34.2421 39.996 34.3224 40.1132 34.52L41.3926 36.5932L42.672 34.52C42.7892 34.3224 42.8964 34.2421 43.1107 34.2421H43.5495C43.727 34.2421 43.8275 34.3224 43.8275 34.4732C43.8275 34.5803 43.7906 34.6507 43.6935 34.8114L42.0859 37.3401L43.7203 39.9223C43.8174 40.083 43.8543 40.1534 43.8543 40.2605C43.8543 40.4113 43.7571 40.4916 43.5763 40.4916H43.104C42.8897 40.4916 42.7825 40.4113 42.6653 40.2137L41.3591 38.0869L40.0529 40.2137C39.9357 40.4113 39.8285 40.4916 39.6142 40.4916H39.1754C38.9946 40.495 38.8975 40.4146 38.8975 40.2605Z" fill="white"/>
<path d="M48.4962 40.1802V37.963L46.6542 34.8181C46.5571 34.6573 46.5303 34.587 46.5303 34.4765C46.5303 34.3258 46.6374 34.2354 46.815 34.2354H47.2704C47.4848 34.2354 47.5819 34.3157 47.6891 34.5133L49.0656 36.9348L50.4421 34.5133C50.5593 34.3157 50.6464 34.2354 50.8608 34.2354H51.2727C51.4502 34.2354 51.5574 34.3258 51.5574 34.4765C51.5574 34.5837 51.5306 34.654 51.4335 34.8181L49.5914 37.963V40.1802C49.5914 40.3677 49.4675 40.4916 49.28 40.4916H48.8077C48.6202 40.495 48.4962 40.3677 48.4962 40.1802Z" fill="white"/>
<path d="M12.6934 49.7655C12.6934 49.7287 12.7035 49.6784 12.7269 49.6148L13.7216 46.4498C13.7987 46.212 13.8891 46.135 14.1001 46.135H14.4685C14.6795 46.135 14.7699 46.2087 14.8469 46.4498L15.8417 49.6148C15.8651 49.6818 15.8751 49.7287 15.8751 49.7655C15.8751 49.8694 15.8115 49.9397 15.6742 49.9397H15.4398C15.2991 49.9397 15.2455 49.8928 15.1953 49.7354L14.9307 48.8579H13.6111L13.3465 49.7354C13.2963 49.8928 13.2427 49.9397 13.102 49.9397H12.891C12.7571 49.9397 12.6934 49.8694 12.6934 49.7655ZM14.7632 48.2952L14.2709 46.6575L13.7786 48.2952H14.7632Z" fill="white"/>
<path d="M18.6315 49.6416L17.6301 46.4766C17.61 46.413 17.5966 46.3627 17.5966 46.3259C17.5966 46.2221 17.6603 46.1517 17.7976 46.1517H18.0354C18.176 46.1517 18.2296 46.202 18.2799 46.356L19.1707 49.31L20.0616 46.356C20.1085 46.1986 20.1654 46.1517 20.3061 46.1517H20.5238C20.6578 46.1517 20.7248 46.2221 20.7248 46.3259C20.7248 46.3627 20.7147 46.413 20.6913 46.4766L19.6899 49.6416C19.6128 49.8794 19.5224 49.9564 19.3114 49.9564H19.01C18.8023 49.9564 18.7085 49.8794 18.6315 49.6416Z" fill="white"/>
<path d="M22.9688 49.7488V46.3426C22.9688 46.2288 23.0458 46.1517 23.1563 46.1517H23.4443C23.5582 46.1517 23.6319 46.2288 23.6319 46.3426V49.7488C23.6319 49.8626 23.5549 49.9363 23.4443 49.9363H23.1563C23.0424 49.9397 22.9688 49.8626 22.9688 49.7488Z" fill="white"/>
<path d="M25.8758 49.7655C25.8758 49.7287 25.8858 49.6784 25.9093 49.6148L26.904 46.4498C26.981 46.212 27.0715 46.135 27.2825 46.135H27.6509C27.8619 46.135 27.9523 46.2087 28.0293 46.4498L29.024 49.6148C29.0475 49.6818 29.0575 49.7287 29.0575 49.7655C29.0575 49.8694 28.9939 49.9397 28.8566 49.9397H28.6255C28.4848 49.9397 28.4312 49.8928 28.381 49.7354L28.1164 48.8579H26.7935L26.5289 49.7354C26.4786 49.8928 26.4251 49.9397 26.2844 49.9397H26.0734C25.9394 49.9397 25.8758 49.8694 25.8758 49.7655ZM27.9456 48.2952L27.4533 46.6575L26.9609 48.2952H27.9456Z" fill="white"/>
<path d="M31.4388 49.7488V46.7043H30.5245C30.4073 46.7043 30.3403 46.6407 30.3403 46.5201V46.3359C30.3403 46.2187 30.4039 46.1517 30.5245 46.1517H33.0196C33.1402 46.1517 33.2038 46.2187 33.2038 46.3359V46.5201C33.2038 46.6407 33.1402 46.7043 33.0196 46.7043H32.1053V49.7488C32.1053 49.8626 32.0283 49.9363 31.9144 49.9363H31.6264C31.5158 49.9397 31.4388 49.8626 31.4388 49.7488Z" fill="white"/>
<path d="M35.3641 49.7488V46.3426C35.3641 46.2288 35.4411 46.1517 35.5516 46.1517H35.8397C35.9535 46.1517 36.0272 46.2288 36.0272 46.3426V49.7488C36.0272 49.8626 35.9502 49.9363 35.8397 49.9363H35.5516C35.4378 49.9397 35.3641 49.8626 35.3641 49.7488Z" fill="white"/>
<path d="M41.2352 47.4412V48.6536C41.2352 49.5077 40.6993 50 39.7582 50C38.8171 50 38.2812 49.5077 38.2812 48.6536V47.4412C38.2812 46.5872 38.8171 46.0948 39.7582 46.0948C40.6993 46.0948 41.2352 46.5872 41.2352 47.4412ZM39.7582 49.4641C40.2773 49.4641 40.5586 49.1928 40.5586 48.7005V47.391C40.5586 46.8987 40.2874 46.6274 39.7582 46.6274C39.229 46.6274 38.9577 46.8987 38.9577 47.391V48.7005C38.9577 49.1928 39.2324 49.4641 39.7582 49.4641Z" fill="white"/>
<path d="M43.2916 49.7488V46.4499C43.2916 46.2657 43.4054 46.1518 43.5997 46.1518H43.8107C43.9949 46.1518 44.082 46.2221 44.1791 46.3996L45.5322 48.8814V46.3393C45.5322 46.2255 45.6092 46.1484 45.7231 46.1484H45.9609C46.0747 46.1484 46.1518 46.2255 46.1518 46.3393V49.6383C46.1518 49.8225 46.0379 49.9364 45.8437 49.9364H45.6561C45.4719 49.9364 45.3848 49.866 45.2877 49.6885L43.9145 47.1967V49.7488C43.9145 49.8627 43.8375 49.9364 43.7236 49.9364H43.4858C43.3652 49.9397 43.2916 49.8627 43.2916 49.7488Z" fill="white"/>
<path d="M33.0096 15.912C32.7283 15.912 32.457 15.7613 32.313 15.4967L29.4293 10.1816L26.5256 15.5001C26.3179 15.8819 25.839 16.0225 25.4538 15.8149C25.072 15.6039 24.928 15.125 25.139 14.7398L29.4327 6.87256L33.7029 14.7431C33.9105 15.1283 33.7699 15.6072 33.3847 15.8149C33.2641 15.8819 33.1335 15.912 33.0096 15.912Z" fill="white"/>
<path d="M14.7733 9.39778H5.3989C4.88313 9.39778 4.46448 8.97913 4.46448 8.46335C4.46448 7.94758 4.88313 7.52893 5.3989 7.52893H14.7733C15.289 7.52893 15.7077 7.94758 15.7077 8.46335C15.7077 8.97913 15.289 9.39778 14.7733 9.39778Z" fill="white"/>
<path d="M53.5167 9.39778H44.1423C43.6265 9.39778 43.2079 8.97913 43.2079 8.46335C43.2079 7.94758 43.6265 7.52893 44.1423 7.52893H53.5167C54.0325 7.52893 54.4511 7.94758 54.4511 8.46335C54.4511 8.97913 54.0325 9.39778 53.5167 9.39778Z" fill="white"/>
<path d="M16.2837 4.73579H0.934423C0.418648 4.73579 0 4.31714 0 3.80137C0 3.28559 0.418648 2.86694 0.934423 2.86694H16.2837C16.7995 2.86694 17.2182 3.28559 17.2182 3.80137C17.2182 4.31714 16.8029 4.73579 16.2837 4.73579Z" fill="white"/>
<path d="M47.6924 11.5647H41.1649H40.3108H39.4568H37.9396C37.4238 11.5647 37.0052 11.9834 37.0052 12.4992C37.0052 13.0149 37.4238 13.4336 37.9396 13.4336H39.4568H40.1936C39.7817 18.9932 35.1363 23.3907 29.4729 23.3907C23.5415 23.3907 18.7119 18.5645 18.7119 12.6298C18.7119 6.69502 23.5415 1.86885 29.4729 1.86885C33.7163 1.86885 37.5745 4.38074 39.3027 8.26914C39.5104 8.74138 40.063 8.95238 40.5352 8.74473C41.0075 8.53708 41.2185 7.98446 41.0108 7.51223C38.9845 2.94728 34.4564 0 29.4729 0C22.5099 0 16.8431 5.66347 16.8431 12.6298C16.8431 19.5961 22.5099 25.2596 29.4729 25.2596C36.1679 25.2596 41.6438 20.0214 42.0624 13.4336H47.6924C48.2082 13.4336 48.6269 13.0149 48.6269 12.4992C48.6235 11.98 48.2082 11.5647 47.6924 11.5647Z" fill="white"/>
<path d="M14.1302 13.4303H11.1997C10.6839 13.4303 10.2653 13.0116 10.2653 12.4958C10.2653 11.9801 10.6839 11.5614 11.1997 11.5614H14.1302C14.646 11.5614 15.0646 11.9801 15.0646 12.4958C15.0646 13.0116 14.646 13.4303 14.1302 13.4303Z" fill="white"/>
<path d="M57.9041 4.73579H42.5548C42.039 4.73579 41.6204 4.31714 41.6204 3.80137C41.6204 3.28559 42.039 2.86694 42.5548 2.86694H57.9041C58.4199 2.86694 58.8385 3.28559 58.8385 3.80137C58.8385 4.31714 58.4199 4.73579 57.9041 4.73579Z" fill="white"/>
</g>
<defs>
<clipPath id="clip0">
<rect width="58.8385" height="50" fill="white"/>
</clipPath>
</defs>
</svg>
