<?xml version="1.0" encoding="UTF-8"?>
<svg width="18px" height="23px" viewBox="0 0 18 23" version="1.1" xmlns="http://www.w3.org/2000/svg" xmlns:xlink="http://www.w3.org/1999/xlink">
    <!-- Generator: Sketch 58 (84663) - https://sketch.com -->
    <title>icon / pin</title>
    <desc>Created with Sketch.</desc>
    <g id="Design" stroke="none" stroke-width="1" fill="none" fill-rule="evenodd">
        <g id="icons" transform="translate(-531.000000, -174.000000)">
            <g id="icon-/-pin" transform="translate(520.000000, 166.000000)">
                <rect id="Rectangle-Copy-7" x="0" y="0" width="40" height="40"></rect>
                <path d="M20,8 C24.8707127,8 29,11.7197712 29,17 C29,18.4945632 28.3979722,20.2218655 27.3114334,22.1642659 C26.6356162,23.3724212 25.7841105,24.6397274 24.7968167,25.9417212 C23.903777,27.1194173 22.9490488,28.2615108 21.9943309,29.3256234 C21.6600461,29.6982117 21.3493255,30.034776 21.0699285,30.3298891 L21.0699285,30.3298891 L20.711485,30.7027013 C20.3190688,31.1000226 19.6772892,31.0989597 19.2861912,30.7003407 L19.2861912,30.7003407 L19.1354839,30.5454139 C18.8741535,30.2745622 18.546714,29.9248916 18.1698448,29.5080837 L18.1698448,29.5080837 L17.7771169,29.0693292 C16.8194255,27.9888671 15.8768507,26.8459166 15.005264,25.6787168 C12.4954678,22.3176813 11,19.3684942 11,17 C11,11.7197712 15.1292873,8 20,8 Z M20,10 C16.1899788,10 13,12.8736172 13,17 C13,18.79982 14.344316,21.4509233 16.6077735,24.48207 C17.4430781,25.6006822 18.3508944,26.7014851 19.2738045,27.7427071 C19.3392393,27.8165302 19.4034683,27.8886275 19.4664118,27.9589416 L19.4664118,27.9589416 L19.999,28.546 L20.5056691,27.9900016 C21.4259512,26.9642704 22.346223,25.8633952 23.2031833,24.7332788 C24.1384363,23.499914 24.9399072,22.3070751 25.5659598,21.1878838 C26.5005992,19.5170334 27,18.0841822 27,17 C27,12.8736172 23.8100212,10 20,10 Z M20,13 C22.209139,13 24,14.790861 24,17 C24,19.209139 22.209139,21 20,21 C17.790861,21 16,19.209139 16,17 C16,14.790861 17.790861,13 20,13 Z M20,15 C18.8954305,15 18,15.8954305 18,17 C18,18.1045695 18.8954305,19 20,19 C21.1045695,19 22,18.1045695 22,17 C22,15.8954305 21.1045695,15 20,15 Z" id="Combined-Shape" fill="#02283B" fill-rule="evenodd"></path>
            </g>
        </g>
    </g>
</svg>