{
  "three-block-banner": [
    {
      "img": "images/icons/manage.png",
      "title": "Manage Your Workflow",
      "desc": "Lorem ipsum dolor sit amet, consectetur adipisicing elit, sed do eiusmod tempor incididunt ut labore et dolore magna aliqua."
    },
    {
      "img": "images/icons/analytics.png",
      "title": "Analytics & Insights",
      "desc": "Lorem ipsum dolor sit amet, consectetur adipisicing elit, sed do eiusmod tempor incididunt ut labore et dolore magna aliqua."
    },
    {
      "img": "images/icons/organize.png",
      "title": "Organize Your Deadlines",
      "desc": "Lorem ipsum dolor sit amet, consectetur adipisicing elit, sed do eiusmod tempor incididunt ut labore et dolore magna aliqua."
   }
  ]
}
